\begin{tikzpicture}[scale=0.7]
  \scriptsize
  % Room 1
  \begin{scope}
    \draw (0,0) grid (4,4);
    \node at (2, 5) {\color{red}square};
    \foreach \i in {1,2,3,4} {
      \node at (-0.3, 4.5cm - \i cm) {\color{blue}$\i$};
      \node at (\i cm - 0.5cm, 4.3)  {\color{blue}$\i$};
    }
  \end{scope}
  % Room 2
  \begin{scope}[xshift=6cm, yshift=-1cm]
    \draw ( 0, 2) rectangle (5, 3);
    \draw ( 1, 1) rectangle (4, 4);
    \draw ( 2, 0) rectangle (3, 5);
    \node at (2.5, 6) {\color{red}diamond};
    \foreach \i in {1,2,3,4,5} {
      \node at (-0.3, 5.5cm - \i cm) {\color{blue}$\i$};
      \node at (\i cm - 0.5cm, 5.3)  {\color{blue}$\i$};
    }
  \end{scope}
  % Room 3
  \begin{scope}[xshift=13cm]
    \draw ( 0, 3) rectangle (7, 4);
    \draw ( 1, 2) rectangle (6, 4);
    \draw ( 2, 1) rectangle (5, 4);
    \draw ( 3, 0) rectangle (4, 4);
    \node at (3.5, 5) {\color{red}triangle};
    \foreach \i in {1,2,3,4} {
      \node at (-0.3, 4.5cm - \i cm) {\color{blue}$\i$};
    }
    \foreach \i in {1,2,3,4,5,6,7} {
      \node at (\i cm - 0.5cm, 4.3)  {\color{blue}$\i$};
    }
  \end{scope}
\end{tikzpicture}
